Photoresistor Characterization/12kohms_with_blink_dark.csv

#Digilent WaveForms Oscilloscope Acquisition
#Device Name: Discovery2
#Serial Number: SN:210321ABEE3D
#Date Time: 2023-11-30 06:35:25.732
#Sample rate: 800Hz
#Samples: 17125
#Trigger: Source: Channel 1 Type: Edge Condition: Rising Level: 0 V Hyst.: Auto HoldOff: 0 s
#Channel 1: Range: 1 V/div Offset: 0 V Attenuation: 1 X Sample Mode: Average
#Channel 2: Range: 500 mV/div Offset: 0 V Attenuation: 1 X Sample Mode: Average

Time (s),Channel 1 (V),Channel 2 (V)
-163.84,0.006563609919823729,-0.0006359147271907438
-163.83875,0.02519822337511149,-0.000972419238711277
-163.8375,0.02519822337511149,-0.000972419238711277
-163.83625,0.02519822337511149,-0.0006359147271907438
-163.835,0.02519822337511149,-0.0002994102156702108
-163.83375,0.02519822337511149,3.709429585032226e-05
-163.8325,0.02519822337511149,3.709429585032226e-05
-163.83125,0.02519822337511149,0.0003735988073659585
-163.83,0.02519822337511149,0.0003735988073708553
-163.82875,0.02519822337511149,0.0003735988073708553
-163.8275,0.02519822337511149,3.709429584542548e-05
-163.82625,0.02519822337511149,-0.0002994102156751076
-163.825,0.02519822337511149,-0.0006359147271907438
-163.82375,0.02519822337511149,-0.0006359147271907438
-163.8225,0.02519822337511149,-0.0006359147271907438
-163.82125,0.02519822337511149,-0.000972419238711277
-163.82,0.02519822337511149,-0.0006359147271907438
-163.81875,0.02519822337511149,-0.000972419238711277
-163.8175,0.02519822337511149,-0.0006359147271907438
-163.81625,0.02519822337511149,-0.0002994102156702108
-163.815,0.02519822337511149,-0.0002994102156702108
-163.81375,0.02519822337511149,3.709429585032226e-05
-163.8125,0.02519822337511149,3.709429585032226e-05
-163.81125,0.02519822337511149,0.0003735988073708553
-163.81,0.02519822337511149,0.0003735988073708553
-163.80875,0.02519822337511149,0.0003735988073708553
-163.8075,0.02519822337511149,0.0003735988073708553
-163.80625,0.02519822337511149,3.709429585032226e-05
-163.805,0.02519822337511149,-0.0006359147271907438
-163.80375,0.02519822337511149,-0.0006359147271907438
-163.8025,0.02519822337511149,-0.0006359147271907438
-163.80125,0.02519822337511149,-0.0009724192387063802
-163.8,0.02519822337511149,-0.0006359147271956406
-163.79875,0.02519822337511149,-0.0009724192387063802
-163.7975,0.02519822337511149,-0.0006359147271956406
-163.79625,0.02519822337511149,-0.0002994102156702108
-163.795,0.02519822337511149,-0.000299410215665314
-163.79375,0.02519822337511149,3.709429585032226e-05
-163.7925,0.02519822337511149,3.709429585521905e-05
-163.79125,0.02519822337511149,0.0003735988073708553
-163.79,0.02519822337511149,0.0003735988073708553
-163.78875,0.02519822337511149,0.0003735988073708553
-163.7875,0.02519822337511149,0.0003735988073708553
-163.78625,0.02519822337511149,-0.0002994102156702108
-163.785,0.02519822337511149,-0.0002994102156702108
-163.78375,0.02519822337511149,-0.0006359147271907438
-163.7825,0.02519822337511149,-0.0006359147271907438
-163.78125,0.02519822337511149,-0.000972419238711277
-163.78,0.02519822337511149,-0.0006359147271907438
-163.77875,0.02519822337511149,-0.000972419238711277
-163.7775,0.02519822337511149,-0.0006359147271907438
-163.77625,0.02519822337511149,-0.0006359147271907438
-163.775,0.02519822337511149,-0.0002994102156702108
-163.77375,0.02519822337511149,3.709429585032226e-05
-163.7725,0.02519822337511149,3.709429585032226e-05
-163.77125,0.02519822337511149,0.0003735988073708553
-163.77,0.02519822337511149,0.0003735988073708553
-163.76875,0.02519822337511149,0.0003735988073708553
-163.7675,0.02519822337511149,0.0003735988073708553
-163.76625,0.02519822337511149,-0.0002994102156604172
-163.765,0.02519822337511149,-0.0006359147271907438
-163.76375,0.02519822337511149,-0.0006359147271907438
-163.7625,0.02519822337511149,-0.0006359147271956406
-163.76125,0.02519822337511149,-0.0009724192387063802
-163.76,0.02519822337511149,-0.0006359147271907438
-163.75875,0.02519822337511149,-0.000972419238711277
-163.7575,0.02519822337511149,-0.0006359147271907438
-163.75625,0.02519822337511149,-0.0002994102156702108
-163.755,0.02519822337511149,-0.0002994102156702108
-163.75375,0.02519822337511149,3.709429585032226e-05
-163.7525,0.02519822337511149,3.709429585032226e-05
-163.75125,0.02519822337511149,0.0003735988073708553
-163.75,0.02519822337511149,0.0003735988073708553
-163.74875,0.02519822337511149,0.0003735988073708553
-163.7475,0.02519822337511149,0.0003735988073708553
-163.74625,0.02519822337511149,3.709429585032226e-05
-163.745,0.02519822337511149,-0.0006359147271907438
-163.74375,0.02519822337511149,-0.0006359147271907438
-163.7425,0.02519822337511149,-0.0006359147271907438
-163.74125,0.02519822337511149,-0.000972419238711277
-163.74,0.02519822337511149,-0.0006359147271907438
-163.73875,0.02519822337511149,-0.0009724192387063802
-163.7375,0.02519822337511149,-0.000972419238711277
-163.73625,0.02519822337511149,-0.0002994102156800044
-163.735,0.02519822337511149,-0.0002994102156702108
-163.73375,0.02519822337511149,3.709429585032226e-05
-163.7325,0.02519822337511149,3.709429585521905e-05
-163.73125,0.02519822337511149,0.0003735988073708553
-163.73,0.02519822337511149,0.0003735988073708553
-163.72875,0.02519822337511149,0.0003735988073708553
-163.7275,0.02519822337511149,0.0003735988073708553
-163.72625,0.02519822337511149,-0.0002994102156702108
-163.725,0.02519822337511149,-0.0006359147271907438
-163.72375,0.02519822337511149,-0.0006359147271907438
-163.7225,0.02519822337511149,-0.000972419238711277
-163.72125,0.02519822337511149,-0.000972419238711277
-163.72,0.02519822337511149,-0.0006359147271907438
-163.71875,0.02519822337511149,-0.000972419238711277
-163.7175,0.02519822337511149,-0.0006359147271907438
-163.71625,0.02519822337511149,-0.0002994102156702108
-163.715,0.02519822337511149,-0.0002994102156702108
-163.71375,0.02519822337511149,3.709429585032226e-05
-163.7125,0.02519822337511149,3.709429585032226e-05
-163.71125,0.02519822337511149,0.0003735988073708553
-163.71,0.02519822337511149,0.0003735988073708553
-163.70875,0.02519822337511149,0.0003735988073708553
-163.7075,0.02519822337511149,0.0003735988073708553
-163.70625,0.02519822337511149,3.709429585521906e-05
-163.705,0.02519822337511149,-0.000299410215665314
-163.70375,0.02519822337511149,-0.000635914727185847
-163.7025,0.02519822337511149,-0.000972419238711277
-163.70125,0.02519822337511149,-0.0009724192387063802
-163.7,0.02519822337511149,-0.0006359147271956406
-163.69875,0.02519822337511149,-0.0009724192387063802
-163.6975,0.02519822337511149,-0.0006359147271907438
-163.69625,0.02519822337511149,-0.0002994102156702108
-163.695,0.02519822337511149,3.709429585032226e-05
-163.69375,0.02519822337511149,3.709429585032226e-05
-163.6925,0.02519822337511149,3.709429585032226e-05
-163.69125,0.02519822337511149,0.0003735988073708553
-163.69,0.02519822337511149,0.0003735988073708553
-163.68875,0.02519822337511149,0.0003735988073708553
-163.6875,0.02519822337511149,0.0003735988073708553
-163.68625,0.02519822337511149,3.709429585032226e-05
-163.685,0.02519822337511149,-0.0002994102156702108
-163.68375,0.02519822337511149,-0.0006359147271907438
-163.6825,0.02519822337511149,-0.0006359147271907438
-163.68125,0.02519822337511149,-0.000972419238711277
-163.68,0.02519822337511149,-0.0006359147271907438
-163.67875,0.02519822337511149,-0.000972419238711277
-163.6775,0.02519822337511149,-0.0006359147271907438
-163.67625,0.02519822337511149,-0.0002994102156751076
-163.675,0.02519822337511149,3.709429584542546e-05
-163.67375,0.02519822337511149,3.709429585032226e-05
-163.6725,0.02519822337511149,3.709429585032226e-05
-163.67125,0.02519822337511149,0.0003735988073708553
-163.67,0.02519822337511149,0.0003735988073708553
-163.66875,0.02519822337511149,0.0003735988073708553
-163.6675,0.02519822337511149,0.0003735988073659585
-163.66625,0.02519822337511149,3.709429585032226e-05
-163.665,0.02519822337511149,-0.0002994102156702108
-163.66375,0.02519822337511149,-0.0006359147271907438
-163.6625,0.02519822337511149,-0.0006359147271907438
-163.66125,0.02519822337511149,-0.000972419238711277
-163.66,0.02519822337511149,-0.0006359147271907438
-163.65875,0.02519822337511149,-0.000972419238711277
-163.6575,0.02519822337511149,-0.0006359147271907438
-163.65625,0.02519822337511149,-0.0002994102156702108
-163.655,0.02519822337511149,3.709429585032226e-05
-163.65375,0.02519822337511149,3.709429585032226e-05
-163.6525,0.02892514606616904,3.709429585032226e-05
-163.65125,0.02892514606616904,0.0003735988073708553
-163.65,0.02892514606616904,0.0003735988073708553
-163.64875,0.02519822337511149,0.0007101033188913885
-163.6475,0.02519822337511149,0.0003735988073708553
-163.64625,0.02519822337511149,3.709429585032226e-05
-163.645,0.02519822337511149,-0.000299410215665314
-163.64375,0.02519822337511149,-0.000635914727185847
-163.6425,0.02519822337511149,-0.0006359147271907438
-163.64125,0.02519822337511149,-0.0009724192387063802
-163.64,0.02519822337511149,-0.0006359147271956406
-163.63875,0.02519822337511149,-0.0009724192387063802
-163.6375,0.02519822337511149,-0.000635914727185847
-163.63625,0.02519822337511149,-0.000299410215665314
-163.635,0.02519822337511149,3.709429585032226e-05
-163.63375,0.02519822337511149,3.709429585032226e-05
-163.6325,0.02519822337511149,3.709429585032226e-05
-163.63125,0.02519822337511149,0.0003735988073708553
-163.63,0.02519822337511149,0.0003735988073708553
-163.62875,0.02519822337511149,0.0003735988073708553
-163.6275,0.02519822337511149,0.0003735988073708553
-163.62625,0.02519822337511149,-0.0002994102156702108
-163.625,0.02519822337511149,-0.0006359147271907438
-163.62375,0.02519822337511149,-0.0006359147271907438
-163.6225,0.02519822337511149,-0.0006359147271907438
-163.62125,0.02519822337511149,-0.000972419238711277
-163.62,0.02519822337511149,-0.0006359147271907438
-163.61875,0.02519822337511149,-0.000972419238711277
-163.6175,0.02519822337511149,-0.0006359147271907438
-163.61625,0.02519822337511149,-0.0002994102156702108
-163.615,0.02519822337511149,-0.0002994102156702108
-163.61375,0.02519822337511149,3.709429584542546e-05
-163.6125,0.02519822337511149,3.709429585032226e-05
-163.61125,0.02519822337511149,0.0003735988073659585
-163.61,0.02519822337511149,0.0003735988073708553
-163.60875,0.02519822337511149,0.0003735988073659585
-163.6075,0.02519822337511149,3.709429584542548e-05
-163.60625,0.02519822337511149,-0.0002994102156751076
-163.605,0.02519822337511149,-0.0006359147271907438
-163.60375,0.02519822337511149,-0.0006359147271907438
-163.6025,0.02519822337511149,-0.000972419238711277
-163.60125,0.02519822337511149,-0.000972419238711277
-163.6,0.02519822337511149,-0.0006359147271907438
-163.59875,0.02519822337511149,-0.000972419238711277
-163.5975,0.02519822337511149,-0.0006359147271907438
-163.59625,0.02519822337511149,-0.0002994102156702108
-163.595,0.02519822337511149,-0.0002994102156702108
-163.59375,0.02519822337511149,3.709429585032226e-05
-163.5925,0.02519822337511149,3.709429585032226e-05
-163.59125,0.02519822337511149,0.0003735988073708553
-163.59,0.02519822337511149,0.0003735988073708553
-163.58875,0.02519822337511149,0.0003735988073708553
-163.5875,0.02519822337511149,0.0003735988073708553
-163.58625,0.02519822337511149,3.709429585032226e-05
-163.585,0.02519822337511149,-0.0006359147271907438
-163.58375,0.02519822337511149,-0.0006359147271907438
-163.5825,0.02519822337511149,-0.0006359147271907438
-163.58125,0.02519822337511149,-0.0009724192387063802
-163.58,0.02519822337511149,-0.0006359147271956406
-163.57875,0.02519822337511149,-0.0009724192387063802
-163.5775,0.02519822337511149,-0.000635914727185847
-163.57625,0.02519822337511149,-0.0002994102156702108
-163.575,0.02519822337511149,-0.000299410215665314
-163.57375,0.02519822337511149,3.709429585032226e-05
-163.5725,0.02519822337511149,3.709429585032226e-05
-163.57125,0.02519822337511149,0.0003735988073708553
-163.57,0.02519822337511149,0.0003735988073708553
-163.56875,0.02519822337511149,0.0003735988073708553
-163.5675,0.02519822337511149,0.0003735988073708553
-163.56625,0.02519822337511149,-0.0002994102156702108
-163.565,0.02519822337511149,-0.0006359147271907438
-163.56375,0.02519822337511149,-0.0006359147271907438
-163.5625,0.02519822337511149,-0.0006359147271907438
-163.56125,0.02519822337511149,-0.000972419238711277
-163.56,0.02519822337511149,-0.0006359147271907438
-163.55875,0.02519822337511149,-0.000972419238711277
-163.5575,0.02519822337511149,-0.0006359147271907438
-163.55625,0.02519822337511149,-0.0002994102156702108
-163.555,0.02519822337511149,-0.0002994102156702108
-163.55375,0.02519822337511149,3.709429585032226e-05
-163.5525,0.02519822337511149,3.709429585032226e-05
-163.55125,0.02519822337511149,0.0003735988073659585
-163.55,0.02519822337511149,0.0003735988073708553
-163.54875,0.02519822337511149,0.0003735988073708553
-163.5475,0.02519822337511149,0.0003735988073708553
-163.54625,0.02519822337511149,3.709429584542548e-05
-163.545,0.02519822337511149,-0.0002994102156751076
-163.54375,0.02519822337511149,-0.0006359147271956406
-163.5425,0.02519822337511149,-0.000972419238711277
-163.54125,0.02519822337511149,-0.000972419238711277
-163.54,0.02519822337511149,-0.0006359147271907438
-163.53875,0.02519822337511149,-0.000972419238711277
-163.5375,0.02519822337511149,-0.0006359147271907438
-163.53625,0.02519822337511149,-0.0002994102156702108
-163.535,0.02519822337511149,-0.0002994102156702108
-163.53375,0.02519822337511149,3.709429585032226e-05
-163.5325,0.02519822337511149,3.709429585032226e-05
-163.53125,0.02519822337511149,0.0003735988073708553
-163.53,0.02519822337511149,3.709429585032226e-05
-163.52875,0.02519822337511149,0.0003735988073708553
-163.5275,0.02519822337511149,3.709429585032226e-05
-163.52625,0.02519822337511149,-0.0002994102156702108
-163.525,0.02519822337511149,-0.0006359147271907438
-163.52375,0.02519822337511149,-0.0006359147271907438
-163.5225,0.02519822337511149,-0.0006359147271907438
-163.52125,0.02519822337511149,-0.000972419238711277
-163.52,0.02519822337511149,-0.0006359147271956406
-163.51875,0.02519822337511149,-0.0009724192387063802
-163.5175,0.02519822337511149,-0.0006359147271956406
-163.51625,0.02519822337511149,-0.0006359147271907438
-163.515,0.02519822337511149,-0.000299410215665314
-163.51375,0.02519822337511149,3.709429585032226e-05
-163.5125,0.02519822337511149,3.709429585032226e-05
-163.51125,0.02519822337511149,3.709429585032226e-05
-163.51,0.02519822337511149,3.709429585032226e-05
-163.50875,0.02519822337511149,0.0003735988073708553
-163.5075,0.02519822337511149,3.709429585032226e-05
-163.50625,0.02519822337511149,-0.0002994102156702108
-163.505,0.02519822337511149,-0.0006359147271907438
-163.50375,0.02519822337511149,-0.0006359147271907438
-163.5025,0.02519822337511149,-0.0006359147271907438
-163.50125,0.02519822337511149,-0.000972419238711277
-163.5,0.02519822337511149,-0.0006359147271907438
-163.49875,0.02519822337511149,-0.000972419238711277
-163.4975,0.02519822337511149,-0.0006359147271907438
-163.49625,0.02519822337511149,-0.0002994102156702108
-163.495,0.02519822337511149,-0.0002994102156702108
-163.49375,0.02519822337511149,3.709429585032226e-05
-163.4925,0.02519822337511149,3.709429585032226e-05
-163.49125,0.02519822337511149,0.0003735988073708553
-163.49,0.02519822337511149,0.0003735988073708553
-163.48875,0.02519822337511149,0.0003735988073708553
-163.4875,0.02519822337511149,0.0003735988073708553
-163.48625,0.02519822337511149,3.709429585521906e-05
-163.485,0.02519822337511149,-0.0006359147271809502
-163.48375,0.02519822337511149,-0.0006359147271956406
-163.4825,0.02519822337511149,-0.000972419238711277
-163.48125,0.02519822337511149,-0.000972419238711277
-163.48,0.02519822337511149,-0.000972419238711277
-163.47875,0.02519822337511149,-0.000972419238711277
-163.4775,0.02519822337511149,-0.0006359147271907438
-163.47625,0.02519822337511149,-0.0002994102156702108
-163.475,0.02519822337511149,-0.0002994102156702108
-163.47375,0.02519822337511149,3.709429585032226e-05
-163.4725,0.02519822337511149,3.709429585032226e-05
-163.47125,0.02519822337511149,0.0003735988073708553
-163.47,0.02519822337511149,0.0003735988073708553
-163.46875,0.02519822337511149,0.0003735988073708553
-163.4675,0.02519822337511149,3.709429585032226e-05
-163.46625,0.02519822337511149,-0.0002994102156702108
-163.465,0.02519822337511149,-0.0002994102156702108
-163.46375,0.02519822337511149,-0.0006359147271907438
-163.4625,0.02519822337511149,-0.0006359147271907438
-163.46125,0.02519822337511149,-0.000972419238711277
-163.46,0.02519822337511149,-0.0006359147271907438
-163.45875,0.02519822337511149,-0.000972419238711277
-163.4575,0.02519822337511149,-0.0006359147271956406
-163.45625,0.02519822337511149,-0.0002994102156751076
-163.455,0.02519822337511149,-0.0002994102156702108
-163.45375,0.02519822337511149,3.709429584542546e-05
-163.4525,0.02519822337511149,3.709429585521905e-05
-163.45125,0.02519822337511149,0.0003735988073659585
-163.45,0.02519822337511149,3.709429585521905e-05
-163.44875,0.02519822337511149,0.0003735988073659585
-163.4475,0.02519822337511149,3.709429585032226e-05
-163.44625,0.02519822337511149,-0.0002994102156702108
-163.445,0.02519822337511149,-0.0006359147271907438
-163.44375,0.02519822337511149,-0.0006359147271907438
-163.4425,0.02519822337511149,-0.000972419238711277
-163.44125,0.02519822337511149,-0.000972419238711277
-163.44,0.02519822337511149,-0.0006359147271907438
-163.43875,0.02519822337511149,-0.000972419238711277
-163.4375,0.02519822337511149,-0.0006359147271907438
-163.43625,0.02519822337511149,-0.0002994102156702108
-163.435,0.02519822337511149,-0.0002994102156702108
-163.43375,0.02519822337511149,3.709429585032226e-05
-163.4325,0.02519822337511149,3.709429585032226e-05
-163.43125,0.02519822337511149,0.0003735988073708553
-163.43,0.02519822337511149,0.0003735988073708553
-163.42875,0.02519822337511149,0.0003735988073708553
-163.4275,0.02519822337511149,3.709429585032226e-05
-163.42625,0.02519822337511149,-0.000299410215665314
-163.425,0.02519822337511149,-0.000635914727185847
-163.42375,0.02519822337511149,-0.0006359147271907438
-163.4225,0.02519822337511149,-0.0009724192387063802
-163.42125,0.02519822337511149,-0.000972419238711277
-163.42,0.02519822337511149,-0.000972419238711277
-163.41875,0.02519822337511149,-0.000972419238711277
-163.4175,0.02519822337511149,-0.0009724192387063802
-163.41625,0.02519822337511149,-0.0006359147271907438
-163.415,0.02519822337511149,-0.0002994102156702108
-163.41375,0.02519822337511149,3.709429585032226e-05
-163.4125,0.02519822337511149,3.709429585032226e-05
-163.41125,0.02519822337511149,0.0003735988073708553
-163.41,0.02519822337511149,0.0003735988073708553
-163.40875,0.02519822337511149,0.0003735988073708553
-163.4075,0.02519822337511149,0.0003735988073708553
-163.40625,0.02519822337511149,-0.0002994102156702108
-163.405,0.02519822337511149,-0.0006359147271907438
-163.40375,0.02519822337511149,-0.0006359147271907438
-163.4025,0.02519822337511149,-0.000972419238711277
-163.40125,0.02519822337511149,-0.000972419238711277
-163.4,0.02519822337511149,-0.0006359147271907438
-163.39875,0.02519822337511149,-0.000972419238711277
-163.3975,0.02519822337511149,-0.0006359147271907438
-163.39625,0.02519822337511149,-0.0002994102156702108
-163.395,0.02519822337511149,3.709429584542546e-05
-163.39375,0.02519822337511149,3.709429585032226e-05
-163.3925,0.02519822337511149,3.709429585032226e-05
-163.39125,0.02519822337511149,0.0003735988073659585
-163.39,0.02519822337511149,3.709429585521905e-05
-163.38875,0.02519822337511149,0.0003735988073659585
-163.3875,0.02519822337511149,3.709429584542548e-05
-163.38625,0.02519822337511149,-0.0002994102156751076
-163.385,0.02519822337511149,-0.0006359147271907438
-163.38375,0.02519822337511149,-0.0006359147271907438
-163.3825,0.02519822337511149,-0.000972419238711277
-163.38125,0.02519822337511149,-0.000972419238711277
-163.38,0.02519822337511149,-0.0006359147271907438
-163.37875,0.02519822337511149,-0.000972419238711277
-163.3775,0.02519822337511149,-0.0006359147271907438
