Photoresistor Characterization/20kohms_with_blink_light.csv

#Digilent WaveForms Oscilloscope Acquisition
#Device Name: Discovery2
#Serial Number: SN:210321ABEE3D
#Date Time: 2023-11-30 06:20:23.815
#Sample rate: 800Hz
#Samples: 21027
#Trigger: Source: Channel 1 Type: Edge Condition: Rising Level: 0 V Hyst.: Auto HoldOff: 0 s
#Channel 1: Range: 1 V/div Offset: 0 V Attenuation: 1 X Sample Mode: Average
#Channel 2: Range: 500 mV/div Offset: 0 V Attenuation: 1 X Sample Mode: Average

Time (s),Channel 1 (V),Channel 2 (V)
-163.84,0.6438673900906651,-0.0002994102156702108
-163.83875,3.304890191505757,-0.0002994102156702108
-163.8375,3.304890191505757,-0.0006359147271907438
-163.83625,3.304890191505757,-0.0006359147271907438
-163.835,3.308617114196815,-0.000972419238711277
-163.83375,3.308617114196815,-0.000972419238711277
-163.8325,3.308617114196815,-0.000972419238711277
-163.83125,3.304890191505812,-0.000972419238711277
-163.83,3.304890191505757,-0.0006359147271956406
-163.82875,3.304890191505757,-0.0002994102156751076
-163.8275,3.304890191505757,3.709429585032226e-05
-163.82625,3.304890191505812,3.709429585521905e-05
-163.825,3.308617114196815,0.0003735988073708553
-163.82375,3.308617114196815,0.0003735988073708553
-163.8225,3.308617114196815,0.0003735988073708553
-163.82125,3.304890191505757,0.0003735988073708553
-163.82,3.304890191505757,3.709429585032226e-05
-163.81875,3.304890191505757,-0.0002994102156702108
-163.8175,3.304890191505757,-0.0006359147271907438
-163.81625,3.308617114196815,-0.0006359147271907438
-163.815,3.308617114196815,-0.000972419238711277
-163.81375,3.308617114196815,-0.000972419238711277
-163.8125,3.308617114196815,-0.000972419238711277
-163.81125,3.304890191505757,-0.000972419238711277
-163.81,3.304890191505757,-0.0006359147271907438
-163.80875,3.304890191505757,-0.0002994102156702108
-163.8075,3.304890191505757,3.709429585032226e-05
-163.80625,3.304890191505757,3.709429585032226e-05
-163.805,3.308617114196815,0.0003735988073708553
-163.80375,3.308617114196815,0.0003735988073708553
-163.8025,3.308617114196815,0.0003735988073708553
-163.80125,3.304890191505812,0.0003735988073708553
-163.8,3.304890191505757,3.709429585521906e-05
-163.79875,3.304890191505757,-0.000299410215665314
-163.7975,3.304890191505757,-0.000635914727185847
-163.79625,3.304890191505812,-0.0009724192387161738
-163.795,3.308617114196815,-0.001308923750226913
-163.79375,3.308617114196815,-0.000972419238711277
-163.7925,3.308617114196761,-0.000972419238711277
-163.79125,3.304890191505757,-0.000972419238711277
-163.79,3.304890191505757,-0.0006359147271907438
-163.78875,3.304890191505757,-0.0002994102156702108
-163.7875,3.304890191505757,3.709429585032226e-05
-163.78625,3.304890191505757,3.709429585032226e-05
-163.785,3.308617114196815,0.0003735988073708553
-163.78375,3.308617114196815,0.0003735988073708553
-163.7825,3.304890191505757,0.0003735988073708553
-163.78125,3.304890191505757,0.0007101033188913885
-163.78,3.304890191505757,3.709429585032226e-05
-163.77875,3.304890191505757,-0.0002994102156702108
-163.7775,3.304890191505757,-0.0006359147271907438
-163.77625,3.304890191505757,-0.0006359147271907438
-163.775,3.304890191505757,-0.000972419238711277
-163.77375,3.308617114196815,-0.0006359147271907438
-163.7725,3.308617114196815,-0.0006359147271907438
-163.77125,3.304890191505757,-0.000972419238711277
-163.77,3.304890191505757,-0.0006359147271956406
-163.76875,3.304890191505757,-0.0002994102156751076
-163.7675,3.304890191505757,3.709429584542546e-05
-163.76625,3.304890191505757,3.709429585032226e-05
-163.765,3.304890191505812,0.0003735988073708553
-163.76375,3.308617114196815,0.0003735988073708553
-163.7625,3.308617114196761,0.0003735988073708553
-163.76125,3.304890191505757,0.0003735988073659585
-163.76,3.304890191505757,3.709429585032226e-05
-163.75875,3.304890191505757,-0.0002994102156702108
-163.7575,3.304890191505757,-0.0006359147271907438
-163.75625,3.304890191505757,-0.0006359147271907438
-163.755,3.304890191505757,-0.000972419238711277
-163.75375,3.308617114196815,-0.000972419238711277
-163.7525,3.308617114196815,-0.000972419238711277
-163.75125,3.304890191505757,-0.000972419238711277
-163.75,3.304890191505757,-0.0002994102156702108
-163.74875,3.304890191505757,-0.0002994102156702108
-163.7475,3.304890191505757,3.709429585032226e-05
-163.74625,3.304890191505757,3.709429585032226e-05
-163.745,3.308617114196815,0.0003735988073708553
-163.74375,3.308617114196815,0.0003735988073708553
-163.7425,3.304890191505757,0.0003735988073708553
-163.74125,3.304890191505757,0.0007101033188913885
-163.74,3.304890191505757,3.709429585032226e-05
-163.73875,3.304890191505757,-0.000299410215665314
-163.7375,3.304890191505757,-0.000635914727185847
-163.73625,3.304890191505757,-0.0006359147271907438
-163.735,3.304890191505757,-0.0009724192387063802
-163.73375,3.308617114196815,-0.0006359147271907438
-163.7325,3.308617114196761,-0.0006359147271956406
-163.73125,3.304890191505757,-0.0009724192387014834
-163.73,3.304890191505757,-0.0002994102156702108
-163.72875,3.304890191505757,-0.0002994102156702108
-163.7275,3.304890191505757,3.709429585032226e-05
-163.72625,3.304890191505757,3.709429585032226e-05
-163.725,3.304890191505757,0.0003735988073708553
-163.72375,3.308617114196815,0.0003735988073708553
-163.7225,3.308617114196815,0.0007101033188913885
-163.72125,3.304890191505757,0.0007101033188913885
-163.72,3.304890191505757,3.709429585032226e-05
-163.71875,3.304890191505757,-0.0002994102156702108
-163.7175,3.304890191505757,-0.0006359147271907438
-163.71625,3.304890191505757,-0.0006359147271907438
-163.715,3.304890191505757,-0.000972419238711277
-163.71375,3.308617114196815,-0.0006359147271907438
-163.7125,3.308617114196815,-0.0006359147271907438
-163.71125,3.304890191505757,-0.000972419238711277
-163.71,3.304890191505757,-0.0002994102156702108
-163.70875,3.304890191505757,-0.0002994102156702108
-163.7075,3.304890191505757,3.709429584542546e-05
-163.70625,3.304890191505757,3.709429585032226e-05
-163.705,3.308617114196761,0.0003735988073659585
-163.70375,3.308617114196815,0.0003735988073708553
-163.7025,3.308617114196761,0.0003735988073757521
-163.70125,3.304890191505757,0.0007101033188815949
-163.7,3.304890191505757,3.709429584542548e-05
-163.69875,3.304890191505757,-0.0002994102156751076
-163.6975,3.304890191505757,-0.0006359147271907438
-163.69625,3.304890191505757,-0.0006359147271907438
-163.695,3.308617114196815,-0.000972419238711277
-163.69375,3.308617114196815,-0.000972419238711277
-163.6925,3.308617114196815,-0.000972419238711277
-163.69125,3.304890191505757,-0.000972419238711277
-163.69,3.304890191505757,-0.0006359147271907438
-163.68875,3.304890191505757,-0.0002994102156702108
-163.6875,3.304890191505757,3.709429585032226e-05
-163.68625,3.304890191505757,3.709429585032226e-05
-163.685,3.308617114196815,0.0003735988073708553
-163.68375,3.308617114196815,0.0003735988073708553
-163.6825,3.308617114196815,0.0003735988073708553
-163.68125,3.304890191505757,0.0007101033188913885
-163.68,3.304890191505757,3.709429585032226e-05
-163.67875,3.304890191505757,-0.0002994102156702108
-163.6775,3.304890191505757,-0.0006359147271907438
-163.67625,3.304890191505757,-0.0006359147271907438
-163.675,3.308617114196761,-0.0009724192387063802
-163.67375,3.308617114196815,-0.0006359147271956406
-163.6725,3.308617114196815,-0.0006359147271907438
-163.67125,3.304890191505757,-0.0009724192387014834
-163.67,3.304890191505757,-0.0002994102156702108
-163.66875,3.304890191505757,-0.000299410215665314
-163.6675,3.304890191505757,3.709429585032226e-05
-163.66625,3.304890191505757,3.709429585032226e-05
-163.665,3.304890191505757,0.0003735988073708553
-163.66375,3.304890191505757,0.0003735988073708553
-163.6625,3.304890191505757,0.0003735988073708553
-163.66125,3.304890191505757,0.0003735988073708553
-163.66,3.304890191505757,3.709429585032226e-05
-163.65875,3.304890191505757,-0.0002994102156702108
-163.6575,3.304890191505757,-0.0006359147271907438
-163.65625,3.304890191505757,-0.0006359147271907438
-163.655,3.304890191505757,-0.000972419238711277
-163.65375,3.308617114196815,-0.0006359147271907438
-163.6525,3.308617114196815,-0.0006359147271907438
-163.65125,3.304890191505757,-0.000972419238711277
-163.65,3.304890191505757,-0.0006359147271907438
-163.64875,3.304890191505757,-0.0002994102156702108
-163.6475,3.304890191505757,3.709429585032226e-05
-163.64625,3.304890191505757,3.709429585032226e-05
-163.645,3.308617114196761,0.0003735988073659585
-163.64375,3.308617114196815,0.0003735988073708553
-163.6425,3.308617114196815,0.0003735988073708553
-163.64125,3.304890191505812,0.0007101033188864917
-163.64,3.304890191505757,3.709429584542548e-05
-163.63875,3.304890191505757,-0.0002994102156751076
-163.6375,3.304890191505812,-0.0006359147271907438
-163.63625,3.308617114196815,-0.0006359147271956406
-163.635,3.308617114196815,-0.000972419238711277
-163.63375,3.308617114196815,-0.000972419238711277
-163.6325,3.308617114196815,-0.0006359147271907438
-163.63125,3.308617114196815,-0.000972419238711277
-163.63,3.304890191505757,-0.0006359147271907438
-163.62875,3.304890191505757,-0.0002994102156702108
-163.6275,3.304890191505757,3.709429585032226e-05
-163.62625,3.304890191505757,3.709429585032226e-05
-163.625,3.308617114196815,0.0003735988073708553
-163.62375,3.308617114196815,0.0003735988073708553
-163.6225,3.308617114196815,0.0003735988073708553
-163.62125,3.304890191505757,0.0007101033188913885
-163.62,3.304890191505757,3.709429585032226e-05
-163.61875,3.304890191505757,-0.0002994102156702108
-163.6175,3.304890191505757,-0.0006359147271907438
-163.61625,3.304890191505757,-0.0006359147271907438
-163.615,3.308617114196815,-0.000972419238711277
-163.61375,3.308617114196815,-0.0006359147271956406
-163.6125,3.308617114196815,-0.0006359147271907438
-163.61125,3.304890191505812,-0.0009724192387063802
-163.61,3.304890191505757,-0.0006359147271956406
-163.60875,3.304890191505757,-0.000299410215665314
-163.6075,3.304890191505757,3.709429585032226e-05
-163.60625,3.304890191505812,3.709429585521905e-05
-163.605,3.308617114196815,0.0003735988073708553
-163.60375,3.308617114196815,0.0003735988073708553
-163.6025,3.308617114196815,0.0003735988073708553
-163.60125,3.304890191505757,0.0007101033188913885
-163.6,3.304890191505757,3.709429585032226e-05
-163.59875,3.304890191505757,-0.0002994102156702108
-163.5975,3.304890191505757,-0.0006359147271907438
-163.59625,3.304890191505757,-0.0006359147271907438
-163.595,3.304890191505757,-0.000972419238711277
-163.59375,3.308617114196815,-0.000972419238711277
-163.5925,3.308617114196815,-0.0006359147271907438
-163.59125,3.304890191505757,-0.000972419238711277
-163.59,3.304890191505757,-0.0006359147271907438
-163.58875,3.304890191505757,-0.0002994102156702108
-163.5875,3.304890191505757,3.709429585032226e-05
-163.58625,3.304890191505757,3.709429585032226e-05
-163.585,3.304890191505757,0.0003735988073708553
-163.58375,3.308617114196815,0.0003735988073708553
-163.5825,3.308617114196815,0.0003735988073708553
-163.58125,3.304890191505812,0.0007101033188864917
-163.58,3.304890191505757,3.709429586011581e-05
-163.57875,3.304890191505757,-0.000299410215665314
-163.5775,3.304890191505757,-0.0006359147271907438
-163.57625,3.304890191505757,-0.0006359147271956406
-163.575,3.304890191505812,-0.000972419238711277
-163.57375,3.308617114196815,-0.000972419238711277
-163.5725,3.308617114196815,-0.000972419238711277
-163.57125,3.308617114196815,-0.000972419238711277
-163.57,3.304890191505757,-0.0006359147271907438
-163.56875,3.304890191505757,-0.0002994102156702108
-163.5675,3.304890191505757,3.709429585032226e-05
-163.56625,3.304890191505757,3.709429585032226e-05
-163.565,3.308617114196815,0.0003735988073708553
-163.56375,3.308617114196815,0.0003735988073708553
-163.5625,3.308617114196815,0.0003735988073708553
-163.56125,3.304890191505757,0.0007101033188913885
-163.56,3.304890191505757,3.709429585032226e-05
-163.55875,3.304890191505757,-0.0002994102156702108
-163.5575,3.304890191505757,-0.0006359147271907438
-163.55625,3.304890191505757,-0.0006359147271907438
-163.555,3.308617114196815,-0.000972419238711277
-163.55375,3.308617114196815,-0.0006359147271907438
-163.5525,3.308617114196815,-0.0006359147271907438
-163.55125,3.304890191505812,-0.0009724192387063802
-163.55,3.304890191505757,-0.0006359147271956406
-163.54875,3.304890191505757,-0.0002994102156751076
-163.5475,3.304890191505757,3.709429584542546e-05
-163.54625,3.308617114196815,3.709429585521905e-05
-163.545,3.308617114196815,0.0003735988073708553
-163.54375,3.308617114196815,0.0003735988073708553
-163.5425,3.308617114196761,0.0003735988073757521
-163.54125,3.304890191505757,0.0007101033188913885
-163.54,3.304890191505757,3.709429585032226e-05
-163.53875,3.304890191505757,-0.0002994102156702108
-163.5375,3.304890191505757,-0.0006359147271907438
-163.53625,3.304890191505757,-0.0006359147271907438
-163.535,3.304890191505757,-0.000972419238711277
-163.53375,3.308617114196815,-0.0006359147271907438
-163.5325,3.308617114196815,-0.0006359147271907438
-163.53125,3.304890191505757,-0.000972419238711277
-163.53,3.304890191505757,-0.0006359147271907438
-163.52875,3.304890191505757,-0.0002994102156702108
-163.5275,3.304890191505757,3.709429585032226e-05
-163.52625,3.308617114196815,3.709429585032226e-05
-163.525,3.308617114196815,0.0003735988073708553
-163.52375,3.308617114196815,0.0007101033188913885
-163.5225,3.308617114196815,0.0003735988073708553
-163.52125,3.304890191505757,0.0007101033188913885
-163.52,3.304890191505757,3.709429586011581e-05
-163.51875,3.304890191505757,-0.000299410215665314
-163.5175,3.304890191505757,-0.000635914727185847
-163.51625,3.304890191505757,-0.0006359147271907438
-163.515,3.308617114196815,-0.000972419238711277
-163.51375,3.308617114196815,-0.0009724192387063802
-163.5125,3.308617114196761,-0.0006359147271956406
-163.51125,3.304890191505757,-0.0009724192387063802
-163.51,3.304890191505757,-0.0006359147271907438
-163.50875,3.304890191505757,-0.0002994102156702108
-163.5075,3.304890191505757,3.709429585032226e-05
-163.50625,3.304890191505757,3.709429585032226e-05
-163.505,3.308617114196815,0.0003735988073708553
-163.50375,3.308617114196815,0.0003735988073708553
-163.5025,3.308617114196815,0.0003735988073708553
-163.50125,3.304890191505757,0.0007101033188913885
-163.5,3.304890191505757,3.709429585032226e-05
-163.49875,3.304890191505757,-0.0002994102156702108
-163.4975,3.304890191505757,-0.0006359147271907438
-163.49625,3.304890191505757,-0.0006359147271907438
-163.495,3.304890191505757,-0.000972419238711277
-163.49375,3.308617114196815,-0.0006359147271907438
-163.4925,3.308617114196815,-0.0006359147271907438
-163.49125,3.304890191505757,-0.000972419238711277
-163.49,3.304890191505757,-0.0006359147271907438
-163.48875,3.304890191505757,-0.0002994102156751076
-163.4875,3.304890191505757,3.709429584542546e-05
-163.48625,3.304890191505757,3.709429585032226e-05
-163.485,3.308617114196761,0.0003735988073659585
-163.48375,3.308617114196815,0.0003735988073708553
-163.4825,3.308617114196815,0.0003735988073757521
-163.48125,3.308617114196761,0.0007101033188815949
-163.48,3.304890191505757,3.709429584542548e-05
-163.47875,3.304890191505757,-0.0002994102156702108
-163.4775,3.304890191505757,-0.0006359147271907438
-163.47625,3.308617114196815,-0.0006359147271907438
-163.475,3.308617114196815,-0.000972419238711277
-163.47375,3.308617114196815,-0.000972419238711277
-163.4725,3.308617114196815,-0.0006359147271907438
-163.47125,3.308617114196815,-0.000972419238711277
-163.47,3.304890191505757,-0.0006359147271907438
-163.46875,3.304890191505757,-0.0002994102156702108
-163.4675,3.304890191505757,3.709429585032226e-05
-163.46625,3.304890191505757,3.709429585032226e-05
-163.465,3.308617114196815,0.0003735988073708553
-163.46375,3.308617114196815,0.0003735988073708553
-163.4625,3.308617114196815,0.0003735988073708553
-163.46125,3.304890191505757,0.0007101033188913885
-163.46,3.304890191505757,3.709429585032226e-05
-163.45875,3.304890191505757,-0.0002994102156702108
-163.4575,3.304890191505757,-0.000635914727185847
-163.45625,3.308617114196761,-0.0006359147271907438
-163.455,3.304890191505812,-0.0009724192387063802
-163.45375,3.308617114196761,-0.000972419238711277
-163.4525,3.308617114196761,-0.0006359147271956406
-163.45125,3.304890191505757,-0.0009724192387063802
-163.45,3.304890191505757,-0.000635914727185847
-163.44875,3.304890191505757,-0.000299410215665314
-163.4475,3.304890191505757,3.709429585032226e-05
-163.44625,3.304890191505757,3.709429585032226e-05
-163.445,3.308617114196815,0.0003735988073708553
-163.44375,3.308617114196815,0.0003735988073708553
-163.4425,3.308617114196815,0.0003735988073708553
-163.44125,3.308617114196815,0.0007101033188913885
-163.44,3.304890191505757,3.709429585032226e-05
-163.43875,3.304890191505757,-0.0002994102156702108
-163.4375,3.304890191505757,-0.0006359147271907438
-163.43625,3.304890191505757,-0.0006359147271907438
-163.435,3.308617114196815,-0.000972419238711277
-163.43375,3.308617114196815,-0.000972419238711277
-163.4325,3.308617114196815,-0.0006359147271907438
-163.43125,3.304890191505757,-0.000972419238711277
-163.43,3.304890191505757,-0.0006359147271907438
-163.42875,3.304890191505757,-0.0002994102156702108
-163.4275,3.304890191505757,3.709429585032226e-05
-163.42625,3.304890191505757,3.709429585032226e-05
-163.425,3.308617114196761,0.0003735988073659585
-163.42375,3.308617114196815,0.0003735988073708553
-163.4225,3.308617114196815,0.0003735988073708553
-163.42125,3.304890191505757,0.0007101033188815949
-163.42,3.304890191505757,3.709429584542548e-05
-163.41875,3.304890191505757,-0.0002994102156751076
-163.4175,3.304890191505757,-0.0006359147271907438
-163.41625,3.304890191505757,-0.0006359147271907438
-163.415,3.308617114196815,-0.000972419238711277
-163.41375,3.308617114196815,-0.000972419238711277
-163.4125,3.308617114196815,-0.0006359147271907438
-163.41125,3.304890191505757,-0.000972419238711277
-163.41,3.304890191505757,-0.0006359147271907438
-163.40875,3.304890191505757,-0.0002994102156702108
-163.4075,3.304890191505757,3.709429585032226e-05
-163.40625,3.304890191505757,3.709429585032226e-05
-163.405,3.308617114196815,0.0003735988073708553
-163.40375,3.308617114196815,0.0003735988073708553
-163.4025,3.308617114196815,0.0003735988073708553
-163.40125,3.304890191505757,0.0007101033188913885
-163.4,3.304890191505757,3.709429585032226e-05
-163.39875,3.304890191505757,3.709429585032226e-05
-163.3975,3.304890191505757,-0.0006359147271907438
-163.39625,3.304890191505757,-0.0006359147271907438
-163.395,3.308617114196761,-0.0009724192387063802
-163.39375,3.308617114196815,-0.000972419238711277
-163.3925,3.308617114196815,-0.0006359147271956406
-163.39125,3.308617114196815,-0.0009724192387063802
-163.39,3.304890191505757,-0.000635914727185847
-163.38875,3.304890191505757,-0.000299410215665314
-163.3875,3.304890191505757,3.709429585032226e-05
-163.38625,3.304890191505757,3.709429585521905e-05
-163.385,3.304890191505757,0.0003735988073708553
-163.38375,3.308617114196815,0.0007101033188913885
-163.3825,3.308617114196815,0.0003735988073708553
-163.38125,3.304890191505757,0.0007101033188913885
-163.38,3.304890191505757,0.0003735988073708553
-163.37875,3.304890191505757,-0.0002994102156702108
-163.3775,3.304890191505757,-0.0006359147271907438
-163.37625,3.304890191505757,-0.0006359147271907438
-163.375,3.304890191505757,-0.000972419238711277
-163.37375,3.308617114196815,-0.000972419238711277
-163.3725,3.308617114196815,-0.000972419238711277
-163.37125,3.308617114196815,-0.00130892375023181
-163.37,3.304890191505757,-0.0006359147271907438
-163.36875,3.304890191505757,-0.0002994102156702108
-163.3675,3.304890191505757,3.709429585032226e-05
-163.36625,3.308617114196815,3.709429585032226e-05
-163.365,3.308617114196815,0.0003735988073708553
-163.36375,3.308617114196815,0.0003735988073708553
-163.3625,3.308617114196815,0.0003735988073708553
-163.36125,3.308617114196815,0.0007101033188864917
-163.36,3.304890191505812,3.709429586011581e-05
-163.35875,3.304890191505757,-0.0002994102156800044
-163.3575,3.304890191505812,-0.000972419238711277
